%YAML 1.1
%TAG !u! tag:unity3d.com,2011:
--- !u!74 &7400000
AnimationClip:
  m_ObjectHideFlags: 0
  m_CorrespondingSourceObject: {fileID: 0}
  m_PrefabInstance: {fileID: 0}
  m_PrefabAsset: {fileID: 0}
  m_Name: Attack
  serializedVersion: 7
  m_Legacy: 0
  m_Compressed: 0
  m_UseHighQualityCurve: 1
  m_RotationCurves: []
  m_CompressedRotationCurves: []
  m_EulerCurves: []
  m_PositionCurves: []
  m_ScaleCurves: []
  m_FloatCurves: []
  m_PPtrCurves:
  - serializedVersion: 2
    curve:
    - time: 0
      value: {fileID: 21300000, guid: 7a10c49ab8ec8478c9d314d2dc5c9001, type: 3}
    - time: 0.1
      value: {fileID: 21300000, guid: fffe5e32e52bd4a199c8092bf628808c, type: 3}
    - time: 0.2
      value: {fileID: 21300000, guid: a82521d1d9afc4c54bff6323e62a1128, type: 3}
    - time: 0.3
      value: {fileID: 21300000, guid: 860134be16cde469e87dcdc1320456b6, type: 3}
    - time: 0.4
      value: {fileID: 21300000, guid: 4cd67cd79d6574e55b45669904add54f, type: 3}
    - time: 0.5
      value: {fileID: 21300000, guid: 1c2b29daf494b46f1947f70f03d3365d, type: 3}
    - time: 0.6
      value: {fileID: 21300000, guid: 53fde3f2d95a94400b8edb2c317aa8fd, type: 3}
    - time: 0.7
      value: {fileID: 21300000, guid: 12c1d50ab14ee43a08813b708edde79c, type: 3}
    - time: 0.8
      value: {fileID: 21300000, guid: bcf27c18f6c42449f9eac8f61117671a, type: 3}
    - time: 0.9
      value: {fileID: 21300000, guid: 7baeb9c28aee1490aba4334e5e5b17aa, type: 3}
    - time: 1
      value: {fileID: 21300000, guid: bc05487f8642347db892cc3670db70db, type: 3}
    - time: 1.1
      value: {fileID: 21300000, guid: a5f8a104f963143f6adbb33b7434743b, type: 3}
    attribute: m_Sprite
    path: 
    classID: 212
    script: {fileID: 0}
    flags: 2
  m_SampleRate: 10
  m_WrapMode: 0
  m_Bounds:
    m_Center: {x: 0, y: 0, z: 0}
    m_Extent: {x: 0, y: 0, z: 0}
  m_ClipBindingConstant:
    genericBindings:
    - serializedVersion: 2
      path: 0
      attribute: 0
      script: {fileID: 0}
      typeID: 212
      customType: 23
      isPPtrCurve: 1
      isIntCurve: 0
      isSerializeReferenceCurve: 0
    pptrCurveMapping:
    - {fileID: 21300000, guid: 7a10c49ab8ec8478c9d314d2dc5c9001, type: 3}
    - {fileID: 21300000, guid: fffe5e32e52bd4a199c8092bf628808c, type: 3}
    - {fileID: 21300000, guid: a82521d1d9afc4c54bff6323e62a1128, type: 3}
    - {fileID: 21300000, guid: 860134be16cde469e87dcdc1320456b6, type: 3}
    - {fileID: 21300000, guid: 4cd67cd79d6574e55b45669904add54f, type: 3}
    - {fileID: 21300000, guid: 1c2b29daf494b46f1947f70f03d3365d, type: 3}
    - {fileID: 21300000, guid: 53fde3f2d95a94400b8edb2c317aa8fd, type: 3}
    - {fileID: 21300000, guid: 12c1d50ab14ee43a08813b708edde79c, type: 3}
    - {fileID: 21300000, guid: bcf27c18f6c42449f9eac8f61117671a, type: 3}
    - {fileID: 21300000, guid: 7baeb9c28aee1490aba4334e5e5b17aa, type: 3}
    - {fileID: 21300000, guid: bc05487f8642347db892cc3670db70db, type: 3}
    - {fileID: 21300000, guid: a5f8a104f963143f6adbb33b7434743b, type: 3}
  m_AnimationClipSettings:
    serializedVersion: 2
    m_AdditiveReferencePoseClip: {fileID: 0}
    m_AdditiveReferencePoseTime: 0
    m_StartTime: 0
    m_StopTime: 1.2
    m_OrientationOffsetY: 0
    m_Level: 0
    m_CycleOffset: 0
    m_HasAdditiveReferencePose: 0
    m_LoopTime: 0
    m_LoopBlend: 0
    m_LoopBlendOrientation: 0
    m_LoopBlendPositionY: 0
    m_LoopBlendPositionXZ: 0
    m_KeepOriginalOrientation: 0
    m_KeepOriginalPositionY: 1
    m_KeepOriginalPositionXZ: 0
    m_HeightFromFeet: 0
    m_Mirror: 0
  m_EditorCurves: []
  m_EulerEditorCurves: []
  m_HasGenericRootTransform: 0
  m_HasMotionFloatCurves: 0
  m_Events:
  - time: 0.3
    functionName: AttaqueDebut
    data: 
    objectReferenceParameter: {fileID: 0}
    floatParameter: 0
    intParameter: 0
    messageOptions: 0
  - time: 1
    functionName: AttaqueFin
    data: 
    objectReferenceParameter: {fileID: 0}
    floatParameter: 0
    intParameter: 0
    messageOptions: 0
